t625027/verilog_simulation/output/sram_sp_tb.vcd
$date
	Mon Mar 31 14:22:34 2025
$end
$version
	Icarus Verilog
$end
$timescale
	1ps
$end
$scope module tb_sram_sp $end
$var wire 8 ! dout [7:0] $end
$var parameter 32 " ADDR_WIDTH $end
$var parameter 32 # DATA_WIDTH $end
$var parameter 36 $ DEPTH $end
$var reg 4 % addr [3:0] $end
$var reg 1 & clk $end
$var reg 8 ' din [7:0] $end
$var reg 1 ( we $end
$var integer 32 ) i [31:0] $end
$var integer 32 * j [31:0] $end
$scope module dut $end
$var wire 4 + addr [3:0] $end
$var wire 1 & clk $end
$var wire 8 , din [7:0] $end
$var wire 1 ( we $end
$var parameter 32 - ADDR_WIDTH $end
$var parameter 32 . DATA_WIDTH $end
$var parameter 36 / DEPTH $end
$var reg 4 0 addr_reg [3:0] $end
$var reg 8 1 dout [7:0] $end
$upscope $end
$upscope $end
$enddefinitions $end
$comment Show the parameter values. $end
$dumpall
b10000 /
b1000 .
b100 -
b10000 $
b1000 #
b100 "
$end
#0
$dumpvars
bx 1
bx 0
b0 ,
b0 +
bx *
bx )
0(
b0 '
0&
b0 %
bx !
$end
#5000
b0 0
1&
#10000
0&
b0 )
#15000
b1 )
b10100000 '
b10100000 ,
1(
1&
#20000
0&
#25000
b10100000 !
b10100000 1
b10 )
b10100001 '
b10100001 ,
b1 %
b1 +
1&
#30000
0&
#35000
bx !
bx 1
b10 0
b11 )
b10100010 '
b10100010 ,
b10 %
b10 +
1&
#40000
0&
#45000
b10100010 !
b10100010 1
b100 )
b10100011 '
b10100011 ,
b11 %
b11 +
1&
#50000
0&
#55000
bx !
bx 1
b100 0
b101 )
b10100100 '
b10100100 ,
b100 %
b100 +
1&
#60000
0&
#65000
b10100100 !
b10100100 1
b110 )
b10100101 '
b10100101 ,
b101 %
b101 +
1&
#70000
0&
#75000
bx !
bx 1
b110 0
b111 )
b10100110 '
b10100110 ,
b110 %
b110 +
1&
#80000
0&
#85000
b10100110 !
b10100110 1
b1000 )
b10100111 '
b10100111 ,
b111 %
b111 +
1&
#90000
0&
#95000
bx !
bx 1
b1000 0
b1001 )
b10101000 '
b10101000 ,
b1000 %
b1000 +
1&
#100000
0&
#105000
b10101000 !
b10101000 1
b1010 )
b10101001 '
b10101001 ,
b1001 %
b1001 +
1&
#110000
0&
#115000
bx !
bx 1
b1010 0
b1011 )
b10101010 '
b10101010 ,
b1010 %
b1010 +
1&
#120000
0&
#125000
b10101010 !
b10101010 1
b1100 )
b10101011 '
b10101011 ,
b1011 %
b1011 +
1&
#130000
0&
#135000
bx !
bx 1
b1100 0
b1101 )
b10101100 '
b10101100 ,
b1100 %
b1100 +
1&
#140000
0&
#145000
b10101100 !
b10101100 1
b1110 )
b10101101 '
b10101101 ,
b1101 %
b1101 +
1&
#150000
0&
#155000
bx !
bx 1
b1110 0
b1111 )
b10101110 '
b10101110 ,
b1110 %
b1110 +
1&
#160000
0&
#165000
b10101110 !
b10101110 1
b10000 )
b10101111 '
b10101111 ,
b1111 %
b1111 +
1&
#170000
0&
#175000
bx !
bx 1
b1111 0
b0 *
0(
1&
#180000
0&
#185000
b0 %
b0 +
1&
#186000
b1 *
#190000
0&
#195000
b1 0
b1 %
b1 +
1&
#196000
b10 *
#200000
0&
#205000
b10 0
b10100010 !
b10100010 1
b10 %
b10 +
1&
#206000
b11 *
#210000
0&
#215000
bx !
bx 1
b11 0
b11 %
b11 +
1&
#216000
b100 *
#220000
0&
#225000
b100 0
b10100100 !
b10100100 1
b100 %
b100 +
1&
#226000
b101 *
#230000
0&
#235000
bx !
bx 1
b101 0
b101 %
b101 +
1&
#236000
b110 *
#240000
0&
#245000
b110 0
b10100110 !
b10100110 1
b110 %
b110 +
1&
#246000
b111 *
#250000
0&
#255000
bx !
bx 1
b111 0
b111 %
b111 +
1&
#256000
b1000 *
#260000
0&
#265000
b1000 0
b10101000 !
b10101000 1
b1000 %
b1000 +
1&
#266000
b1001 *
#270000
0&
#275000
bx !
bx 1
b1001 0
b1001 %
b1001 +
1&
#276000
b1010 *
#280000
0&
#285000
b1010 0
b10101010 !
b10101010 1
b1010 %
b1010 +
1&
#286000
b1011 *
#290000
0&
#295000
bx !
bx 1
b1011 0
b1011 %
b1011 +
1&
#296000
b1100 *
#300000
0&
#305000
b1100 0
b10101100 !
b10101100 1
b1100 %
b1100 +
1&
#306000
b1101 *
#310000
0&
#315000
bx !
bx 1
b1101 0
b1101 %
b1101 +
1&
#316000
b1110 *
#320000
0&
#325000
b1110 0
b10101110 !
b10101110 1
b1110 %
b1110 +
1&
#326000
b1111 *
#330000
0&
#335000
bx !
bx 1
b1111 0
b1111 %
b1111 +
1&
#336000
b10000 *
